{
  "$schema": "../../node_modules/ng-packagr/ng-package.schema.json",
  "dest": "../../dist/ngx-dining",
  "deleteDestPath": false,
  "lib": {
    "entryFile": "src/public_api.ts"
  },
  "whitelistedNonPeerDependencies": [
    "tslib",
    "ngx-dropzone",
    "@ngx-translate/core",
    "ngx-extended-pdf-viewer",
    "@universis/ngx-tables",
    "ngx-pipes"
  ]
}
